This is JBibTeX, Version 0.99c-j0.33 (sjis.euc) (Web2C 7.5.4)
The top-level auxiliary file: bare_jrnl.aux
The style file: IEEEtran.bst
Reallocated wiz_functions (elt_size=4) to 3400 items from 0.
Reallocated wiz_functions (elt_size=4) to 6800 items from 3400.
Database file #1: mokada_cite.bib
I was expecting an "="---line 131 of file mokada_cite.bib
 : @Comment 
 :          month = jun,
I'm skipping whatever remains of this entry
I was expecting a `,' or a `}'---line 142 of file mokada_cite.bib
 : 
 : @Comment note  = {参照2014-2-10}
(Error may have been on previous line)
I'm skipping whatever remains of this entry
I was expecting a `,' or a `}'---line 150 of file mokada_cite.bib
 : 
 : @Comment note  = "参照2013-11-02"
(Error may have been on previous line)
I'm skipping whatever remains of this entry
I was expecting a `,' or a `}'---line 158 of file mokada_cite.bib
 : 
 : @Comment note  = "参照2014-2-10"
(Error may have been on previous line)
I'm skipping whatever remains of this entry
I was expecting a `,' or a `}'---line 166 of file mokada_cite.bib
 : 
 : @Comment note  = "参照2013-11-02"
(Error may have been on previous line)
I'm skipping whatever remains of this entry
I was expecting a `,' or a `}'---line 175 of file mokada_cite.bib
 : 
 : @Comment note  = "参照2013-11-02"
(Error may have been on previous line)
I'm skipping whatever remains of this entry
Repeated entry---line 178 of file mokada_cite.bib
 : @comment @online{hue
 :                     ,
I'm skipping whatever remains of this entry
Repeated entry---line 232 of file mokada_cite.bib
 : @comment @misc{crossbow
 :                        ,
I'm skipping whatever remains of this entry
Repeated entry---line 240 of file mokada_cite.bib
 : @comment @misc{napica
 :                      ,
I'm skipping whatever remains of this entry
I was expecting an "="---line 249 of file mokada_cite.bib
 : @Comment 
 :          author = "一般財団法人省エネルギーセンター",
I'm skipping whatever remains of this entry
Repeated entry---line 256 of file mokada_cite.bib
 : @comment @misc{hue
 :                   ,
I'm skipping whatever remains of this entry
-- IEEEtran.bst version 1.13 (2008/09/30) by Michael Shell.
-- http://www.michaelshell.org/tex/ieeetran/bibtex/
-- See the "IEEEtran_bst_HOWTO.pdf" manual for usage information.

Done.
You've used 9 entries,
            4039 wiz_defined-function locations,
            861 strings with 8729 characters,
and the built_in function-call counts, 6017 in all, are:
= -- 454
> -- 124
< -- 48
+ -- 70
- -- 20
* -- 265
:= -- 906
add.period$ -- 22
call.type$ -- 9
change.case$ -- 9
chr.to.int$ -- 120
cite$ -- 9
duplicate$ -- 424
empty$ -- 532
format.name$ -- 24
if$ -- 1373
int.to.chr$ -- 0
int.to.str$ -- 9
missing$ -- 80
newline$ -- 58
num.names$ -- 9
pop$ -- 219
preamble$ -- 1
purify$ -- 0
quote$ -- 2
skip$ -- 452
stack$ -- 0
substring$ -- 285
swap$ -- 326
text.length$ -- 8
text.prefix$ -- 0
top$ -- 5
type$ -- 9
warning$ -- 0
while$ -- 29
width$ -- 10
write$ -- 106
is.kanji.str$ -- 0
(There were 11 error messages)
