% Generated by IEEEtran.bst, version: 1.13 (2008/09/30)
\begin{thebibliography}{1}
\providecommand{\url}[1]{#1}
\csname url@samestyle\endcsname
\providecommand{\newblock}{\relax}
\providecommand{\bibinfo}[2]{#2}
\providecommand{\BIBentrySTDinterwordspacing}{\spaceskip=0pt\relax}
\providecommand{\BIBentryALTinterwordstretchfactor}{4}
\providecommand{\BIBentryALTinterwordspacing}{\spaceskip=\fontdimen2\font plus
\BIBentryALTinterwordstretchfactor\fontdimen3\font minus
  \fontdimen4\font\relax}
\providecommand{\BIBforeignlanguage}[2]{{%
\expandafter\ifx\csname l@#1\endcsname\relax
\typeout{** WARNING: IEEEtran.bst: No hyphenation pattern has been}%
\typeout{** loaded for the language `#1'. Using the pattern for}%
\typeout{** the default language instead.}%
\else
\language=\csname l@#1\endcsname
\fi
#2}}
\providecommand{\BIBdecl}{\relax}
\BIBdecl

\bibitem{katzev1992impact}
R.~Katzev, ``The impact of energy-efficient office lighting strategies on
  employee satisfaction and productivity,'' \emph{Environment and Behavior},
  vol.~24, no.~6, pp. 759--778, 1992.

\bibitem{hue}
\BIBentryALTinterwordspacing
Philips. Philips hue. [Online]. Available: \url{http://www.meethue.com/}
\BIBentrySTDinterwordspacing

\bibitem{endo}
\BIBentryALTinterwordspacing
E.~LEDZ. Ledz products. [Online]. Available:
  \url{http://www.endo-lighting.com/asia/products/data/}
\BIBentrySTDinterwordspacing

\bibitem{tanaka2009evolutional}
S.~Tanaka, M.~Miki, T.~Hiroyasu, and M.~Yoshikata, ``An evolutional
  optimization algorithm to provide individual illuminance in workplaces,'' in
  \emph{Systems, Man and Cybernetics, 2009. SMC 2009. IEEE International
  Conference on}.\hskip 1em plus 0.5em minus 0.4em\relax IEEE, 2009, pp.
  941--947.

\bibitem{miki2004proposal}
M.~Miki, T.~Hiroyasu, and K.~Imazato, ``Proposal for an intelligent lighting
  system and verification of control method effectiveness,'' in
  \emph{Cybernetics and Intelligent Systems, 2004 IEEE Conference on},
  vol.~1.\hskip 1em plus 0.5em minus 0.4em\relax IEEE, 2004, pp. 520--525.

\bibitem{park2007design}
H.~Park, J.~Burke, and M.~B. Srivastava, ``Design and implementation of a
  wireless sensor network for intelligent light control,'' in \emph{Proceedings
  of the 6th international conference on Information processing in sensor
  networks}.\hskip 1em plus 0.5em minus 0.4em\relax ACM, 2007, pp. 370--379.

\bibitem{singhvi2005intelligent}
V.~Singhvi, A.~Krause, C.~Guestrin, J.~H. Garrett~Jr, and H.~S. Matthews,
  ``Intelligent light control using sensor networks,'' in \emph{Proceedings of
  the 3rd international conference on Embedded networked sensor systems}.\hskip
  1em plus 0.5em minus 0.4em\relax ACM, 2005, pp. 218--229.

\bibitem{crossbow}
\BIBentryALTinterwordspacing
MEMSIC. Iris wireless module. [Online]. Available: \url{http://www.memsic.com}
\BIBentrySTDinterwordspacing

\bibitem{napica}
\BIBentryALTinterwordspacing
Panasonic. Napica. [Online]. Available:
  \url{http://www3.panasonic.biz/ac/j/control/sensor/illuminance/napica/}
\BIBentrySTDinterwordspacing

\end{thebibliography}
