\relax 
\citation{katzev1992impact}
\citation{hue}
\citation{endo}
\citation{tanaka2009evolutional}
\citation{miki2004proposal}
\citation{park2007design}
\citation{singhvi2005intelligent}
\@writefile{toc}{\contentsline {section}{\numberline {I}はじめに}{1}}
\@writefile{toc}{\contentsline {section}{\numberline {II}関連研究}{1}}
\@writefile{toc}{\contentsline {section}{\numberline {III}無線センサネットワーク駆動型知的照明システム}{1}}
\@writefile{toc}{\contentsline {subsection}{\numberline {\unhbox \voidb@x \hbox {III-A}}概要}{1}}
\@writefile{lof}{\contentsline {figure}{\numberline {1}{\ignorespaces Construction of WSN-ILS}}{1}}
\newlabel{fig:construction_wsn-ils}{{1}{1}}
\newlabel{mokuteki1}{{1}{2}}
\@writefile{toc}{\contentsline {subsection}{\numberline {\unhbox \voidb@x \hbox {III-B}}制御アルゴリズム}{2}}
\newlabel{cd_lx}{{3}{2}}
\@writefile{lof}{\contentsline {figure}{\numberline {2}{\ignorespaces 3 types of light change range}}{2}}
\newlabel{fig:kinbou3}{{2}{2}}
\@writefile{toc}{\contentsline {subsection}{\numberline {\unhbox \voidb@x \hbox {III-C}}影響度と照明制御}{2}}
\citation{crossbow}
\citation{napica}
\@writefile{toc}{\contentsline {section}{\numberline {IV}WSN-ILSの制御方式}{3}}
\@writefile{toc}{\contentsline {subsection}{\numberline {\unhbox \voidb@x \hbox {IV-A}}全灯制御方式}{3}}
\@writefile{toc}{\contentsline {subsection}{\numberline {\unhbox \voidb@x \hbox {IV-B}}制御照明限定方式}{3}}
\@writefile{toc}{\contentsline {section}{\numberline {V}検証実験}{3}}
\@writefile{toc}{\contentsline {subsection}{\numberline {\unhbox \voidb@x \hbox {V-A}}概要}{3}}
\@writefile{toc}{\contentsline {subsection}{\numberline {\unhbox \voidb@x \hbox {V-B}}実験環境}{3}}
\@writefile{lof}{\contentsline {figure}{\numberline {3}{\ignorespaces Experiment environment}}{3}}
\newlabel{fig:enviro}{{3}{3}}
\@writefile{lof}{\contentsline {figure}{\numberline {4}{\ignorespaces An experiment room}}{4}}
\newlabel{fig:kc111}{{4}{4}}
\@writefile{toc}{\contentsline {subsection}{\numberline {\unhbox \voidb@x \hbox {V-C}}各制御方式を用いたWSN−ILSの評価}{4}}
\@writefile{lof}{\contentsline {figure}{\numberline {5}{\ignorespaces History of the illuminance data in all lights scheme}}{4}}
\newlabel{fig:all_lights_method_ill}{{5}{4}}
\@writefile{lof}{\contentsline {figure}{\numberline {6}{\ignorespaces History of the illuminance data in limited lights scheme}}{4}}
\newlabel{fig:selected_lights_method_ill}{{6}{4}}
\bibstyle{IEEEtran}
\bibdata{mokada_cite}
\bibcite{katzev1992impact}{1}
\bibcite{hue}{2}
\bibcite{endo}{3}
\bibcite{tanaka2009evolutional}{4}
\@writefile{lof}{\contentsline {figure}{\numberline {7}{\ignorespaces A connection of node and lighting on WSN-ILS in all lights scheme}}{5}}
\newlabel{fig:all_lights_method_environ}{{7}{5}}
\@writefile{lof}{\contentsline {figure}{\numberline {8}{\ignorespaces A connection of node and lighting on WSN-ILS in limited lights scheme}}{5}}
\newlabel{fig:selected_lights_method_environ}{{8}{5}}
\@writefile{toc}{\contentsline {section}{\numberline {VI}結論と今後の展望}{5}}
\@writefile{lof}{\contentsline {figure}{\numberline {9}{\ignorespaces Snapshot of lightings of all lights scheme at 300 step}}{5}}
\newlabel{fig:all_lights_cd(300)}{{9}{5}}
\@writefile{lof}{\contentsline {figure}{\numberline {10}{\ignorespaces Snapshot of lightings of limited lights scheme at 300 step}}{5}}
\newlabel{fig:5lights_cd(300)}{{10}{5}}
\@writefile{toc}{\contentsline {section}{References}{5}}
\bibcite{miki2004proposal}{5}
\bibcite{park2007design}{6}
\bibcite{singhvi2005intelligent}{7}
\bibcite{crossbow}{8}
\bibcite{napica}{9}
